{"photos":{"page":1,"pages":2413,"perpage":100,"total":"241209","photo":[{"id":"51163974274","owner":"143224111@N03","secret":"67b8abd86e","server":"65535","farm":66,"title":"Pentagon Rose","ispublic":1,"isfriend":0,"isfamily":0},{"id":"51162524372","owner":"143224111@N03","secret":"02632d1979","server":"65535","farm":66,"title":"Pentagon Rose","ispublic":1,"isfriend":0,"isfamily":0},{"id":"51162522752","owner":"118341005@N07","secret":"82f522ba23","server":"65535","farm":66,"title":"Atop a stem","ispublic":1,"isfriend":0,"isfamily":0},{"id":"51163429238","owner":"191891703@N07","secret":"003ffe9752","server":"65535","farm":66,"title":"flower drop","ispublic":1,"isfriend":0,"isfamily":0},{"id":"51163428618","owner":"92678120@N08","secret":"71261af29a","server":"65535","farm":66,"title":"A touch of red","ispublic":1,"isfriend":0,"isfamily":0},{"id":"51163970794","owner":"192286940@N06","secret":"756d89d042","server":"65535","farm":66,"title":"Th\u00ec Qu\u00e1 kh\u1ee9 ti\u1ebfp di\u1ec5n (Past continuous) \u2013 C\u00f4ng th\u1ee9c, C\u00e1ch d\u00f9ng, b\u00e0i t\u1eadp \u0111\u00e1p \u00e1n chi ti\u1ebft","ispublic":1,"isfriend":0,"isfamily":0},{"id":"51163184966","owner":"170796218@N08","secret":"dae2ac6028","server":"65535","farm":66,"title":"flower\ud83c\udf38","ispublic":1,"isfriend":0,"isfamily":0},{"id":"51163970674","owner":"170796218@N08","secret":"2ff2edaa41","server":"65535","farm":66,"title":"flower\ud83c\udf38","ispublic":1,"isfriend":0,"isfamily":0},{"id":"51164288915","owner":"170796218@N08","secret":"e0641ba260","server":"65535","farm":66,"title":"flower\ud83c\udf38","ispublic":1,"isfriend":0,"isfamily":0},{"id":"51162520832","owner":"170796218@N08","secret":"da104282ce","server":"65535","farm":66,"title":"flower\ud83c\udf38","ispublic":1,"isfriend":0,"isfamily":0},{"id":"51163184401","owner":"32126965@N07","secret":"2550f25b9a","server":"65535","farm":66,"title":"Pink Blossom Close Up ..","ispublic":1,"isfriend":0,"isfamily":0},{"id":"51162517342","owner":"103761309@N03","secret":"6894320e8c","server":"65535","farm":66,"title":"Pastel bluebells_","ispublic":1,"isfriend":0,"isfamily":0},{"id":"51164268530","owner":"97760720@N06","secret":"21680e4af2","server":"65535","farm":66,"title":"","ispublic":1,"isfriend":0,"isfamily":0},{"id":"51164283190","owner":"186339111@N07","secret":"b0b0a9f19b","server":"65535","farm":66,"title":"flower","ispublic":1,"isfriend":0,"isfamily":0},{"id":"51163419568","owner":"192522389@N08","secret":"f46c3fce1b","server":"65535","farm":66,"title":"Muscle Melt Patch","ispublic":1,"isfriend":0,"isfamily":0},{"id":"51163175111","owner":"7931729@N05","secret":"2db6d75c2f","server":"65535","farm":66,"title":"White turning pink!!","ispublic":1,"isfriend":0,"isfamily":0},{"id":"51164272995","owner":"38307297@N08","secret":"f17c4b17af","server":"65535","farm":66,"title":"1682-48L","ispublic":1,"isfriend":0,"isfamily":0},{"id":"51163411913","owner":"38307297@N08","secret":"8d107fbee1","server":"65535","farm":66,"title":"1682-49L","ispublic":1,"isfriend":0,"isfamily":0},{"id":"51163955054","owner":"38307297@N08","secret":"b6b9b53d00","server":"65535","farm":66,"title":"1682-50L","ispublic":1,"isfriend":0,"isfamily":0},{"id":"51164272700","owner":"38307297@N08","secret":"00c5a2aae1","server":"65535","farm":66,"title":"1682-55L","ispublic":1,"isfriend":0,"isfamily":0},{"id":"51163954529","owner":"38307297@N08","secret":"f3264225b6","server":"65535","farm":66,"title":"1682-40L","ispublic":1,"isfriend":0,"isfamily":0},{"id":"51163954484","owner":"38307297@N08","secret":"695a63a849","server":"65535","farm":66,"title":"1682-41L","ispublic":1,"isfriend":0,"isfamily":0},{"id":"51163168521","owner":"38307297@N08","secret":"9f9255c2e3","server":"65535","farm":66,"title":"1682-42L","ispublic":1,"isfriend":0,"isfamily":0},{"id":"51163954414","owner":"38307297@N08","secret":"1f2b19b557","server":"65535","farm":66,"title":"1682-43L","ispublic":1,"isfriend":0,"isfamily":0},{"id":"51163411193","owner":"38307297@N08","secret":"0914a7e03a","server":"65535","farm":66,"title":"1682-44L","ispublic":1,"isfriend":0,"isfamily":0},{"id":"51164272280","owner":"38307297@N08","secret":"83373b6168","server":"65535","farm":66,"title":"1682-45L","ispublic":1,"isfriend":0,"isfamily":0},{"id":"51163168331","owner":"38307297@N08","secret":"f6cfbfab49","server":"65535","farm":66,"title":"1682-46L","ispublic":1,"isfriend":0,"isfamily":0},{"id":"51162504062","owner":"38307297@N08","secret":"e19b6590f3","server":"65535","farm":66,"title":"1682-47L","ispublic":1,"isfriend":0,"isfamily":0},{"id":"51163949739","owner":"192950610@N04","secret":"0fc4eef431","server":"65535","farm":66,"title":"Macro - Dandelion","ispublic":1,"isfriend":0,"isfamily":0},{"id":"51163405923","owner":"192950610@N04","secret":"9da7b35b32","server":"65535","farm":66,"title":"Macro - Dandelion","ispublic":1,"isfriend":0,"isfamily":0},{"id":"51164267205","owner":"192950610@N04","secret":"d37482cd3c","server":"65535","farm":66,"title":"Macro - Dandelion","ispublic":1,"isfriend":0,"isfamily":0},{"id":"51163163416","owner":"192950610@N04","secret":"b0605176fb","server":"65535","farm":66,"title":"Macro - Dandelion","ispublic":1,"isfriend":0,"isfamily":0},{"id":"51162498362","owner":"181806760@N02","secret":"eea38d807a","server":"65535","farm":66,"title":"Tastic","ispublic":1,"isfriend":0,"isfamily":0},{"id":"51163946204","owner":"54252009@N02","secret":"6fe2a9e275","server":"65535","farm":66,"title":"Time to Shine.","ispublic":1,"isfriend":0,"isfamily":0},{"id":"51163398443","owner":"54252009@N02","secret":"ff30e204a4","server":"65535","farm":66,"title":"Deep Blue.","ispublic":1,"isfriend":0,"isfamily":0},{"id":"51163327073","owner":"192330760@N03","secret":"276c5cfae1","server":"65535","farm":66,"title":"101 + Pictures of flowers of Belgium Ngan Anime are beautiful, incredibly authentic","ispublic":1,"isfriend":0,"isfamily":0},{"id":"51163084266","owner":"192330760@N03","secret":"f01253f395","server":"65535","farm":66,"title":"105 + The image of Belgian flowers sadly makes millions of people shed tears","ispublic":1,"isfriend":0,"isfamily":0},{"id":"51164188520","owner":"192330760@N03","secret":"730325b678","server":"65535","farm":66,"title":"Top 101 + pictures of beautiful red and beautiful Belgian flowers","ispublic":1,"isfriend":0,"isfamily":0},{"id":"51164276480","owner":"192766309@N06","secret":"d6e3272a4f","server":"65535","farm":66,"title":"Blooming\u2019","ispublic":1,"isfriend":0,"isfamily":0},{"id":"51163955714","owner":"191173862@N07","secret":"c8690ca2fb","server":"65535","farm":66,"title":"Poetic","ispublic":1,"isfriend":0,"isfamily":0},{"id":"51162502592","owner":"191144181@N07","secret":"d21a9ecb35","server":"65535","farm":66,"title":"Garden fun","ispublic":1,"isfriend":0,"isfamily":0},{"id":"51163952944","owner":"191144181@N07","secret":"2a52336938","server":"65535","farm":66,"title":"Garden fun","ispublic":1,"isfriend":0,"isfamily":0},{"id":"51163409448","owner":"191144181@N07","secret":"0ea7a6d12a","server":"65535","farm":66,"title":"Garden fun","ispublic":1,"isfriend":0,"isfamily":0},{"id":"51164267840","owner":"188566982@N05","secret":"bdd552d03e","server":"65535","farm":66,"title":"_PKV1168_DxO","ispublic":1,"isfriend":0,"isfamily":0},{"id":"51162499252","owner":"188566982@N05","secret":"58230f7fc6","server":"65535","farm":66,"title":"_PKV1167_DxO","ispublic":1,"isfriend":0,"isfamily":0},{"id":"51163949464","owner":"112271252@N04","secret":"5fc1c5d4a7","server":"65535","farm":66,"title":"Yellow iris","ispublic":1,"isfriend":0,"isfamily":0},{"id":"51162498912","owner":"126874728@N06","secret":"2d420663f8","server":"65535","farm":66,"title":"Flowers","ispublic":1,"isfriend":0,"isfamily":0},{"id":"51164266615","owner":"52171339@N06","secret":"3c1efc3e90","server":"65535","farm":66,"title":"Cerastium arvense","ispublic":1,"isfriend":0,"isfamily":0},{"id":"51163949004","owner":"192464670@N03","secret":"80e80851bd","server":"65535","farm":66,"title":"BHO THC oil","ispublic":1,"isfriend":0,"isfamily":0},{"id":"51162498452","owner":"188566982@N05","secret":"ec95f7e44e","server":"65535","farm":66,"title":"_PKV1166_DxO","ispublic":1,"isfriend":0,"isfamily":0},{"id":"51162498272","owner":"192464670@N03","secret":"21f9d06945","server":"65535","farm":66,"title":"Dab can","ispublic":1,"isfriend":0,"isfamily":0},{"id":"51163404493","owner":"188566982@N05","secret":"c96d184e27","server":"65535","farm":66,"title":"_PKV1165_DxO","ispublic":1,"isfriend":0,"isfamily":0},{"id":"51162497937","owner":"188566982@N05","secret":"93a9fc7b3c","server":"65535","farm":66,"title":"_PKV1164_DxO","ispublic":1,"isfriend":0,"isfamily":0},{"id":"51162497922","owner":"188566982@N05","secret":"2cd486f22c","server":"65535","farm":66,"title":"_PKV1163_DxO","ispublic":1,"isfriend":0,"isfamily":0},{"id":"51163404258","owner":"192464670@N03","secret":"288fa84021","server":"65535","farm":66,"title":"BHO crumble wax","ispublic":1,"isfriend":0,"isfamily":0},{"id":"51162497592","owner":"192464670@N03","secret":"047d51a0e3","server":"65535","farm":66,"title":"Weed stems","ispublic":1,"isfriend":0,"isfamily":0},{"id":"51162497382","owner":"188566982@N05","secret":"68bca5b348","server":"65535","farm":66,"title":"_PKV1162_DxO","ispublic":1,"isfriend":0,"isfamily":0},{"id":"51162497027","owner":"90867018@N00","secret":"ddf2ee2b03","server":"65535","farm":66,"title":"Abstract Flower Wall Art","ispublic":1,"isfriend":0,"isfamily":0},{"id":"51162496907","owner":"90867018@N00","secret":"c9dab1c33c","server":"65535","farm":66,"title":"Abstract Flower Wall Art","ispublic":1,"isfriend":0,"isfamily":0},{"id":"51163947279","owner":"90867018@N00","secret":"8e8cf374ce","server":"65535","farm":66,"title":"Abstract Flower Wall Art","ispublic":1,"isfriend":0,"isfamily":0},{"id":"51163161016","owner":"188566982@N05","secret":"3f872d6ef1","server":"65535","farm":66,"title":"_PKV1161_DxO","ispublic":1,"isfriend":0,"isfamily":0},{"id":"51162496762","owner":"90867018@N00","secret":"7d343ede01","server":"65535","farm":66,"title":"Abstract Flower Wall Art","ispublic":1,"isfriend":0,"isfamily":0},{"id":"51163160896","owner":"90867018@N00","secret":"1f69a1bf74","server":"65535","farm":66,"title":"Abstract Flower Wall Art","ispublic":1,"isfriend":0,"isfamily":0},{"id":"51163403038","owner":"90867018@N00","secret":"39b85ec6a6","server":"65535","farm":66,"title":"Beautiful Flowers In Nature","ispublic":1,"isfriend":0,"isfamily":0},{"id":"51163160696","owner":"90867018@N00","secret":"b6a292075d","server":"65535","farm":66,"title":"Beautiful Flowers In Nature","ispublic":1,"isfriend":0,"isfamily":0},{"id":"51163160641","owner":"90867018@N00","secret":"f14a06820d","server":"65535","farm":66,"title":"Beautiful Flowers In Nature","ispublic":1,"isfriend":0,"isfamily":0},{"id":"51163160591","owner":"90867018@N00","secret":"dea2c92428","server":"65535","farm":66,"title":"Beautiful Flowers In Nature","ispublic":1,"isfriend":0,"isfamily":0},{"id":"51163946879","owner":"90867018@N00","secret":"19c371ba6f","server":"65535","farm":66,"title":"Beautiful Flowers In Nature","ispublic":1,"isfriend":0,"isfamily":0},{"id":"51163402803","owner":"90867018@N00","secret":"d003dcbdb5","server":"65535","farm":66,"title":"Beautiful Flowers In Nature","ispublic":1,"isfriend":0,"isfamily":0},{"id":"51162496282","owner":"90867018@N00","secret":"9ef9095f71","server":"65535","farm":66,"title":"Beautiful Flowers In Nature","ispublic":1,"isfriend":0,"isfamily":0},{"id":"51162496227","owner":"90867018@N00","secret":"27ed18c1d6","server":"65535","farm":66,"title":"Beautiful Flowers In Nature","ispublic":1,"isfriend":0,"isfamily":0},{"id":"51162496162","owner":"187892203@N06","secret":"07b245a815","server":"65535","farm":66,"title":"Watercolor paintings, \u00c7i\u00e7ekler - Flowers, Salahattin Y\u0131ld\u0131z","ispublic":1,"isfriend":0,"isfamily":0},{"id":"51164264030","owner":"188566982@N05","secret":"12dc9a07b5","server":"65535","farm":66,"title":"_PKV1160_DxO","ispublic":1,"isfriend":0,"isfamily":0},{"id":"51164263530","owner":"188566982@N05","secret":"c939a0074d","server":"65535","farm":66,"title":"_PKV1158_DxO","ispublic":1,"isfriend":0,"isfamily":0},{"id":"51162495177","owner":"188566982@N05","secret":"7fe404638e","server":"65535","farm":66,"title":"_PKV1157_DxO","ispublic":1,"isfriend":0,"isfamily":0},{"id":"51163159286","owner":"192464670@N03","secret":"3104416096","server":"65535","farm":66,"title":"What happens when you eat weed","ispublic":1,"isfriend":0,"isfamily":0},{"id":"51163158801","owner":"188566982@N05","secret":"a2ed1eebc2","server":"65535","farm":66,"title":"_PKV1156_DxO","ispublic":1,"isfriend":0,"isfamily":0},{"id":"51163400438","owner":"188566982@N05","secret":"21ab540ab5","server":"65535","farm":66,"title":"_PKV1155_DxO","ispublic":1,"isfriend":0,"isfamily":0},{"id":"51162493522","owner":"188566982@N05","secret":"f8b541542a","server":"65535","farm":66,"title":"_PKV1154_DxO","ispublic":1,"isfriend":0,"isfamily":0},{"id":"51164261190","owner":"22794096@N04","secret":"537c068a77","server":"65535","farm":66,"title":"Blue beauty","ispublic":1,"isfriend":0,"isfamily":0},{"id":"51163157271","owner":"188566982@N05","secret":"b2078c9681","server":"65535","farm":66,"title":"_PKV1150_DxO","ispublic":1,"isfriend":0,"isfamily":0},{"id":"51163398953","owner":"188566982@N05","secret":"41f4ecf0c4","server":"65535","farm":66,"title":"_PKV1149_DxO","ispublic":1,"isfriend":0,"isfamily":0},{"id":"51163156591","owner":"97904844@N08","secret":"138f7b9c02","server":"65535","farm":66,"title":"Goi\u00e2nia, 2001","ispublic":1,"isfriend":0,"isfamily":0},{"id":"51162491987","owner":"188566982@N05","secret":"fc309122d8","server":"65535","farm":66,"title":"_PKV1148_DxO","ispublic":1,"isfriend":0,"isfamily":0},{"id":"51163156311","owner":"141550064@N07","secret":"f65bb2c76f","server":"65535","farm":66,"title":"Flowers. Purple. Spring. Spring flowers. Macro photography. Nikon d7500","ispublic":1,"isfriend":0,"isfamily":0},{"id":"51163155851","owner":"188566982@N05","secret":"4bf66b8d31","server":"65535","farm":66,"title":"_PKV1147_DxO","ispublic":1,"isfriend":0,"isfamily":0},{"id":"51163941334","owner":"192704652@N04","secret":"091e211bac","server":"65535","farm":66,"title":"hot lips salvia","ispublic":1,"isfriend":0,"isfamily":0},{"id":"51163397593","owner":"141550064@N07","secret":"45bb9ee966","server":"65535","farm":66,"title":"Macro photography. Spring. Spring flowers. Daisy. Nikon D7500","ispublic":1,"isfriend":0,"isfamily":0},{"id":"51162490857","owner":"188566982@N05","secret":"d4779c1be5","server":"65535","farm":66,"title":"_PKV1146_DxO","ispublic":1,"isfriend":0,"isfamily":0},{"id":"51163155096","owner":"78814955@N00","secret":"58b2008e61","server":"65535","farm":66,"title":"Sending Cards and Flowers","ispublic":1,"isfriend":0,"isfamily":0},{"id":"51162490502","owner":"95597086@N00","secret":"eca5557d03","server":"65535","farm":66,"title":"City flowers | Kaunas aerial","ispublic":1,"isfriend":0,"isfamily":0},{"id":"51163154936","owner":"95597086@N00","secret":"f6eb3fbc50","server":"65535","farm":66,"title":"City flowers | Kaunas aerial #126\/365","ispublic":1,"isfriend":0,"isfamily":0},{"id":"51162490267","owner":"95597086@N00","secret":"2bb8f5f32b","server":"65535","farm":66,"title":"City flowers | Kaunas aerial","ispublic":1,"isfriend":0,"isfamily":0},{"id":"51164258215","owner":"188566982@N05","secret":"c318b53c3f","server":"65535","farm":66,"title":"_PKV1145_DxO","ispublic":1,"isfriend":0,"isfamily":0},{"id":"51164258195","owner":"70067752@N04","secret":"18612222dc","server":"65535","farm":66,"title":"pure white flowers in evening sunlight","ispublic":1,"isfriend":0,"isfamily":0},{"id":"51162490127","owner":"95597086@N00","secret":"a6cecaa7d3","server":"65535","farm":66,"title":"City flowers | Kaunas aerial","ispublic":1,"isfriend":0,"isfamily":0},{"id":"51163154141","owner":"188566982@N05","secret":"57e133ee42","server":"65535","farm":66,"title":"_PKV1144_DxO","ispublic":1,"isfriend":0,"isfamily":0},{"id":"51163395823","owner":"188566982@N05","secret":"f824bf5988","server":"65535","farm":66,"title":"_PKV1143_DxO","ispublic":1,"isfriend":0,"isfamily":0},{"id":"51164249130","owner":"65039623@N05","secret":"e34ffe0b8c","server":"65535","farm":66,"title":"All Down the Line","ispublic":1,"isfriend":0,"isfamily":0},{"id":"51163387533","owner":"65039623@N05","secret":"6316a19891","server":"65535","farm":66,"title":"Bee In Blue","ispublic":1,"isfriend":0,"isfamily":0}]},"stat":"ok"}
